…
    missval = sum(is.na(pp))*100/n()
  ) %>%
  summarize(
    pp = sum(pp, na.rm = T),
    missval = unique(missval)
  )  %>%
  mutate(
    pp = ifelse(missval >= 10, NA, pp),
    date = as.Date(sprintf("%1$s-01",date)),
    month=str_sub(date,6,7)
  )
ppMonthly
```

    ## # A tibble: 408 x 4
    ##    date          pp missval month
    ##    <date>     <dbl>   <dbl> <chr>
    ##  1 1980-01-01  0          0 01   
    ##  2 1980-02-01  1.9        0 02   
    ##  3 1980-03-01  8.23       0 03   
    ##  4 1980-04-01  0          0 04   
    ##  5 1980-05-01  0.01       0 05   
    ##  6 1980-06-01  0          0 06   
    ##  7 1980-07-01  0.01       0 07   
    ##  8 1980-08-01  0.01       0 08   
    ##  9 1980-09-01  0          0 09   
    ## 10 1980-10-01  0.01       0 10   
    ## # ... with 398 more rows
…
